<svg width="823" height="708" viewBox="0 0 823 708" fill="none" xmlns="http://www.w3.org/2000/svg">
<path fill-rule="evenodd" clip-rule="evenodd" d="M101.125 131.6C102.85 123.341 109.572 117.053 117.928 115.883L706.741 33.3983C719.272 31.6429 730.264 41.8192 729.477 54.4483L695.382 601.82C694.643 613.673 683.798 622.276 672.087 620.297L42.4942 513.893C31.3054 512.002 23.9295 501.191 26.2496 490.083L101.125 131.6Z" fill="#7CCA84"/>
<g opacity="0.429106" filter="url(#filter0_f)">
<path fill-rule="evenodd" clip-rule="evenodd" d="M135.125 158.6C136.85 150.341 143.572 144.053 151.928 142.883L740.741 60.3983C753.272 58.6429 764.264 68.8192 763.477 81.4483L729.382 628.82C728.643 640.673 717.798 649.276 706.087 647.297L76.4942 540.893C65.3054 539.002 57.9295 528.191 60.2496 517.083L135.125 158.6Z" fill="#7CCA84"/>
</g>
<defs>
<filter id="filter0_f" x="0.0203094" y="0.398483" width="823.299" height="706.984" filterUnits="userSpaceOnUse" color-interpolation-filters="sRGB">
<feFlood flood-opacity="0" result="BackgroundImageFix"/>
<feBlend mode="normal" in="SourceGraphic" in2="BackgroundImageFix" result="shape"/>
<feGaussianBlur stdDeviation="29.9011" result="effect1_foregroundBlur"/>
</filter>
</defs>
</svg>
